<svg width="57" height="56" viewBox="0 0 57 56" fill="none" xmlns="http://www.w3.org/2000/svg">
<circle cx="28.5" cy="28" r="28" fill="#50A4CD"/>
<path d="M30.5 33V25C30.5 23.894 29.606 22.996 28.5 22.992V22.992C27.388 22.987 26.483 23.888 26.483 25V32" stroke="white" stroke-width="1.5" stroke-linecap="round" stroke-linejoin="round"/>
<path d="M23.5 24V33.05" stroke="white" stroke-width="1.5" stroke-linecap="round" stroke-linejoin="round"/>
<path d="M33.5 24V31" stroke="white" stroke-width="1.5" stroke-linecap="round" stroke-linejoin="round"/>
<path d="M30.5 33V33.5C30.5 35.433 28.933 37 27 37V37C25.067 37 23.5 35.433 23.5 33.5V33" stroke="white" stroke-width="1.5" stroke-linecap="round" stroke-linejoin="round"/>
<path d="M33.5 24V24C33.5 21.239 31.261 19 28.5 19V19C25.739 19 23.5 21.239 23.5 24V24" stroke="white" stroke-width="1.5" stroke-linecap="round" stroke-linejoin="round"/>
</svg>
