<svg width="57" height="56" viewBox="0 0 57 56" fill="none" xmlns="http://www.w3.org/2000/svg">
<circle cx="28.5" cy="28" r="28" fill="#50A4CD"/>
<path fill-rule="evenodd" clip-rule="evenodd" d="M22.824 25.068C20.385 25.401 18.5 27.47 18.5 30C18.5 32.761 20.739 35 23.5 35H34.5C36.709 35 38.5 33.209 38.5 31C38.5 28.791 36.709 27 34.5 27C34.5 23.686 31.814 21 28.5 21C25.863 21 23.629 22.703 22.824 25.068Z" stroke="white" stroke-width="1.5" stroke-linecap="round" stroke-linejoin="round"/>
<path  d="M26.333 28.667L28.5 26.5L30.667 28.667" stroke="white" stroke-width="1.5" stroke-linecap="round" stroke-linejoin="round"/>
<path d="M28.5 31.5V26.5" stroke="white" stroke-width="1.5" stroke-linecap="round" stroke-linejoin="round"/>
</svg>
